{"activityId":1, "activityParentId":90019, "calories":230, "description":"7mph", "distance":2.04, "duration":1097053, "hasStartTime":true, "isFavorite":true, "logId":1154701, "name":"Treadmill, 0% Incline", "startTime":"00:25", "steps":3783 }
{"activityId":2, "activityParentId":90019, "calories":230, "description":"7mph", "distance":2.04, "duration":1097053, "hasStartTime":true, "isFavorite":true, "logId":1154701, "name":"Cycling", "startTime":"00:25", "steps":3783 }
{"activityId":3, "activityParentId":90019, "calories":230, "description":"7mph", "distance":2.04, "duration":1097053, "hasStartTime":true, "isFavorite":true, "logId":1154701, "name":"Gym Workout", "startTime":"00:25", "steps":3783 }
